rabbit_project/rabbitpj/RabbitWaveForm.vcd
$timescale 50 ns
$end
$var wire 1 rst rst $end
$var wire 1 ps2_clk ps2_clk $end
$var wire 1 ps2_data ps2_data $end
$var wire 1 lcd_db[0] lcd_db[0] $end
$var wire 1 lcd_db[1] lcd_db[1] $end
$var wire 1 lcd_db[2] lcd_db[2] $end
$var wire 1 lcd_db[3] lcd_db[3] $end
$var wire 1 lcd_db[4] lcd_db[4] $end
$var wire 1 lcd_db[5] lcd_db[5] $end
$var wire 1 lcd_db[6] lcd_db[6] $end
$var wire 1 lcd_db[7] lcd_db[7] $end
$var wire 1 ledr[0] ledr[0] $end
$var wire 1 ledr[1] ledr[1] $end
$var wire 1 ledr[2] ledr[2] $end
$var wire 1 ledr[3] ledr[3] $end
$var wire 1 seg0[0] seg0[0] $end
$var wire 1 seg0[1] seg0[1] $end
$var wire 1 seg0[2] seg0[2] $end
$var wire 1 seg0[3] seg0[3] $end
$var wire 1 seg0[4] seg0[4] $end
$var wire 1 seg0[5] seg0[5] $end
$var wire 1 seg0[6] seg0[6] $end
$var wire 1 seg0[7] seg0[7] $end
$var wire 1 seg1[0] seg1[0] $end
$var wire 1 seg1[1] seg1[1] $end
$var wire 1 seg1[2] seg1[2] $end
$var wire 1 seg1[3] seg1[3] $end
$var wire 1 seg1[4] seg1[4] $end
$var wire 1 seg1[5] seg1[5] $end
$var wire 1 seg1[6] seg1[6] $end
$var wire 1 seg1[7] seg1[7] $end
$var wire 1 seg2[0] seg2[0] $end
$var wire 1 seg2[1] seg2[1] $end
$var wire 1 seg2[2] seg2[2] $end
$var wire 1 seg2[3] seg2[3] $end
$var wire 1 seg2[4] seg2[4] $end
$var wire 1 seg2[5] seg2[5] $end
$var wire 1 seg2[6] seg2[6] $end
$var wire 1 seg2[7] seg2[7] $end
$var wire 1 seg3[0] seg3[0] $end
$var wire 1 seg3[1] seg3[1] $end
$var wire 1 seg3[2] seg3[2] $end
$var wire 1 seg3[3] seg3[3] $end
$var wire 1 seg3[4] seg3[4] $end
$var wire 1 seg3[5] seg3[5] $end
$var wire 1 seg3[6] seg3[6] $end
$var wire 1 seg3[7] seg3[7] $end
$var wire 1 lcd_en lcd_en $end
$enddefinitions $end
$dumpvars
b0 rst
b0 ps2_clk
b0 ps2_data
b0 lcd_db[0]
b0 lcd_db[1]
b0 lcd_db[2]
b0 lcd_db[3]
b0 lcd_db[4]
b0 lcd_db[5]
b0 lcd_db[6]
b0 lcd_db[7]
b0 ledr[0]
b0 ledr[1]
b0 ledr[2]
b0 ledr[3]
b0 seg0[0]
b0 seg0[1]
b0 seg0[2]
b0 seg0[3]
b0 seg0[4]
b0 seg0[5]
b0 seg0[6]
b0 seg0[7]
b0 seg1[0]
b0 seg1[1]
b0 seg1[2]
b0 seg1[3]
b0 seg1[4]
b0 seg1[5]
b0 seg1[6]
b0 seg1[7]
b0 seg2[0]
b0 seg2[1]
b0 seg2[2]
b0 seg2[3]
b0 seg2[4]
b0 seg2[5]
b0 seg2[6]
b0 seg2[7]
b0 seg3[0]
b0 seg3[1]
b0 seg3[2]
b0 seg3[3]
b0 seg3[4]
b0 seg3[5]
b0 seg3[6]
b0 seg3[7]
b0 lcd_en
$end
#0
b1 seg0[0]
b1 seg0[1]
b1 seg1[0]
b1 seg1[1]
b1 seg2[0]
b1 seg2[1]
b1 seg3[0]
b1 seg3[1]
b1 lcd_en
b1 ps2_clk
b1 ps2_data
#28600
b1 rst
#29000
b0 rst
#34500
b0 ps2_data
#34900
b0 ps2_clk
#35300
b1 ps2_clk
b1 ps2_data
#35700
b0 ps2_clk
#36100
b1 ps2_clk
#36500
b0 ps2_clk
#36900
b1 ps2_clk
b0 ps2_data
#37300
b0 ps2_clk
#37700
b1 ps2_clk
#38100
b0 ps2_clk
#38500
b1 ps2_clk
#38900
b0 ps2_clk
#39300
b1 ps2_clk
#39700
b0 ps2_clk
#40100
b1 ps2_clk
b1 ps2_data
#40500
b0 ps2_clk
#40900
b1 ps2_clk
b0 ps2_data
#41300
b0 ps2_clk
#41700
b1 ps2_clk
#42100
b0 ps2_clk
#42500
b1 ps2_clk
b1 ps2_data
#42900
b0 ps2_clk
#42905
b1 lcd_db[0]
b1 lcd_db[3]
b1 lcd_db[6]
b0 seg0[1]
b1 seg0[2]
b1 seg0[3]
b0 seg1[1]
b1 seg1[3]
b1 seg1[4]
b1 seg1[7]
b0 lcd_en
#42906
b0 lcd_db[0]
b0 lcd_db[3]
b0 lcd_db[6]
b1 lcd_en
#43300
b1 ps2_clk
#44900
b0 ps2_data
#45300
b0 ps2_clk
#45700
b1 ps2_clk
#46100
b0 ps2_clk
#46500
b1 ps2_clk
#46900
b0 ps2_clk
#47300
b1 ps2_clk
#47700
b0 ps2_clk
#48100
b1 ps2_clk
#48500
b0 ps2_clk
#48900
b1 ps2_clk
b1 ps2_data
#49300
b0 ps2_clk
#49700
b1 ps2_clk
#50100
b0 ps2_clk
#50500
b1 ps2_clk
#50900
b0 ps2_clk
#51300
b1 ps2_clk
#51700
b0 ps2_clk
#52100
b1 ps2_clk
#52500
b0 ps2_clk
#52900
b1 ps2_clk
#53300
b0 ps2_clk
#53305
b1 seg0[1]
b1 seg0[4]
b1 seg0[5]
b1 seg0[6]
b1 seg0[7]
b1 seg1[1]
b1 seg1[2]
b1 seg1[5]
b1 seg1[6]
#53700
b1 ps2_clk
#55300
b0 ps2_data
#55700
b0 ps2_clk
#56100
b1 ps2_clk
b1 ps2_data
#56500
b0 ps2_clk
#56900
b1 ps2_clk
#57300
b0 ps2_clk
#57700
b1 ps2_clk
b0 ps2_data
#58100
b0 ps2_clk
#58500
b1 ps2_clk
#58900
b0 ps2_clk
#59300
b1 ps2_clk
#59700
b0 ps2_clk
#60100
b1 ps2_clk
#60500
b0 ps2_clk
#60900
b1 ps2_clk
b1 ps2_data
#61300
b0 ps2_clk
#61700
b1 ps2_clk
b0 ps2_data
#62100
b0 ps2_clk
#62500
b1 ps2_clk
#62900
b0 ps2_clk
#63300
b1 ps2_clk
b1 ps2_data
#63700
b0 ps2_clk
#63705
b1 seg2[2]
b1 seg2[3]
b1 seg2[4]
b1 seg2[7]
#64100
b1 ps2_clk
#65700
b0 ps2_data
#66100
b0 ps2_clk
#66500
b1 ps2_clk
#66900
b0 ps2_clk
#67300
b1 ps2_clk
b1 ps2_data
#67700
b0 ps2_clk
#68100
b1 ps2_clk
b0 ps2_data
#68500
b0 ps2_clk
#68900
b1 ps2_clk
#69300
b0 ps2_clk
#69700
b1 ps2_clk
b1 ps2_data
#70100
b0 ps2_clk
#70500
b1 ps2_clk
b0 ps2_data
#70900
b0 ps2_clk
#71300
b1 ps2_clk
b1 ps2_data
#71700
b0 ps2_clk
#72100
b1 ps2_clk
b0 ps2_data
#72500
b0 ps2_clk
#72900
b1 ps2_clk
#73300
b0 ps2_clk
#73700
b1 ps2_clk
b1 ps2_data
#74100
b0 ps2_clk
#74105
b1 lcd_db[0]
b1 lcd_db[1]
b1 lcd_db[2]
b0 seg0[1]
b0 seg0[3]
b0 seg0[4]
b0 seg0[6]
b0 seg0[7]
b0 seg1[1]
b0 seg1[2]
b0 seg1[4]
b0 seg1[5]
b0 seg1[7]
b0 lcd_en
#74106
b0 lcd_db[0]
b0 lcd_db[1]
b0 lcd_db[2]
b1 lcd_en
#74500
b1 ps2_clk
#76100
b0 ps2_data
#76500
b0 ps2_clk
#76900
b1 ps2_clk
#77300
b0 ps2_clk
#77700
b1 ps2_clk
#78100
b0 ps2_clk
#78500
b1 ps2_clk
#78900
b0 ps2_clk
#79300
b1 ps2_clk
#79700
b0 ps2_clk
#80100
b1 ps2_clk
b1 ps2_data
#80500
b0 ps2_clk
#80900
b1 ps2_clk
#81300
b0 ps2_clk
#81700
b1 ps2_clk
#82100
b0 ps2_clk
#82500
b1 ps2_clk
#82900
b0 ps2_clk
#83300
b1 ps2_clk
#83700
b0 ps2_clk
#84100
b1 ps2_clk
#84500
b0 ps2_clk
#84505
b1 seg0[1]
b1 seg0[3]
b1 seg0[4]
b1 seg0[6]
b1 seg0[7]
b1 seg1[1]
b1 seg1[2]
b1 seg1[4]
b1 seg1[5]
b1 seg1[7]
#84900
b1 ps2_clk
#86500
b0 ps2_data
#86900
b0 ps2_clk
#87300
b1 ps2_clk
#87700
b0 ps2_clk
#88100
b1 ps2_clk
b1 ps2_data
#88500
b0 ps2_clk
#88900
b1 ps2_clk
b0 ps2_data
#89300
b0 ps2_clk
#89700
b1 ps2_clk
#90100
b0 ps2_clk
#90500
b1 ps2_clk
b1 ps2_data
#90900
b0 ps2_clk
#91300
b1 ps2_clk
b0 ps2_data
#91700
b0 ps2_clk
#92100
b1 ps2_clk
b1 ps2_data
#92500
b0 ps2_clk
#92900
b1 ps2_clk
b0 ps2_data
#93300
b0 ps2_clk
#93700
b1 ps2_clk
#94100
b0 ps2_clk
#94500
b1 ps2_clk
b1 ps2_data
#94900
b0 ps2_clk
#94905
b0 seg2[1]
b0 seg2[3]
b0 seg2[4]
b1 seg2[5]
b0 seg2[7]
#95300
b1 ps2_clk
#96900
b0 ps2_data
#97300
b0 ps2_clk
#97700
b1 ps2_clk
#98100
b0 ps2_clk
#98500
b1 ps2_clk
b1 ps2_data
#98900
b0 ps2_clk
#99300
b1 ps2_clk
b0 ps2_data
#99700
b0 ps2_clk
#100100
b1 ps2_clk
b1 ps2_data
#100500
b0 ps2_clk
#100900
b1 ps2_clk
#101300
b0 ps2_clk
#101700
b1 ps2_clk
#102100
b0 ps2_clk
#102500
b1 ps2_clk
b0 ps2_data
#102900
b0 ps2_clk
#103300
b1 ps2_clk
#103700
b0 ps2_clk
#104100
b1 ps2_clk
b1 ps2_data
#104500
b0 ps2_clk
#104900
b1 ps2_clk
#105300
b0 ps2_clk
#105305
b1 lcd_db[0]
b1 lcd_db[2]
b1 lcd_db[3]
b1 lcd_db[6]
b0 seg0[1]
b0 seg0[2]
b0 seg0[3]
b0 seg0[5]
b0 seg0[6]
b0 seg0[7]
b0 seg1[1]
b0 seg1[4]
b0 seg1[5]
b0 seg1[6]
b0 seg1[7]
b0 lcd_en
#105306
b0 lcd_db[0]
b0 lcd_db[2]
b0 lcd_db[3]
b0 lcd_db[6]
b1 lcd_en
#105700
b1 ps2_clk
#107300
b0 ps2_data
#107700
b0 ps2_clk
#108100
b1 ps2_clk
#108500
b0 ps2_clk
#108900
b1 ps2_clk
#109300
b0 ps2_clk
#109700
b1 ps2_clk
#110100
b0 ps2_clk
#110500
b1 ps2_clk
#110900
b0 ps2_clk
#111300
b1 ps2_clk
b1 ps2_data
#111700
b0 ps2_clk
#112100
b1 ps2_clk
#112500
b0 ps2_clk
#112900
b1 ps2_clk
#113300
b0 ps2_clk
#113700
b1 ps2_clk
#114100
b0 ps2_clk
#114500
b1 ps2_clk
#114900
b0 ps2_clk
#115300
b1 ps2_clk
#115700
b0 ps2_clk
#115705
b1 seg0[1]
b1 seg0[2]
b1 seg0[3]
b1 seg0[5]
b1 seg0[6]
b1 seg0[7]
b1 seg1[1]
b1 seg1[4]
b1 seg1[5]
b1 seg1[6]
b1 seg1[7]
#116100
b1 ps2_clk
#117700
b0 ps2_data
#118100
b0 ps2_clk
#118500
b1 ps2_clk
#118900
b0 ps2_clk
#119300
b1 ps2_clk
b1 ps2_data
#119700
b0 ps2_clk
#120100
b1 ps2_clk
b0 ps2_data
#120500
b0 ps2_clk
#120900
b1 ps2_clk
b1 ps2_data
#121300
b0 ps2_clk
#121700
b1 ps2_clk
#122100
b0 ps2_clk
#122500
b1 ps2_clk
#122900
b0 ps2_clk
#123300
b1 ps2_clk
b0 ps2_data
#123700
b0 ps2_clk
#124100
b1 ps2_clk
#124500
b0 ps2_clk
#124900
b1 ps2_clk
b1 ps2_data
#125300
b0 ps2_clk
#125700
b1 ps2_clk
#126100
b0 ps2_clk
#126105
b1 seg2[3]
b0 seg2[5]
#126500
b1 ps2_clk
#128100
b0 ps2_data
#128500
b0 ps2_clk
#128900
b1 ps2_clk
b1 ps2_data
#129300
b0 ps2_clk
#129700
b1 ps2_clk
b0 ps2_data
#130100
b0 ps2_clk
#130500
b1 ps2_clk
#130900
b0 ps2_clk
#131300
b1 ps2_clk
b1 ps2_data
#131700
b0 ps2_clk
#132100
b1 ps2_clk
b0 ps2_data
#132500
b0 ps2_clk
#132900
b1 ps2_clk
b1 ps2_data
#133300
b0 ps2_clk
#133700
b1 ps2_clk
b0 ps2_data
#134100
b0 ps2_clk
#134500
b1 ps2_clk
#134900
b0 ps2_clk
#135300
b1 ps2_clk
#135700
b0 ps2_clk
#136100
b1 ps2_clk
b1 ps2_data
#136500
b0 ps2_clk
#136505
b0 seg0[1]
b0 seg0[2]
b0 seg0[4]
b0 seg0[5]
b0 seg0[6]
b0 seg0[7]
b0 seg1[1]
b0 seg1[3]
b0 seg1[4]
b0 seg1[6]
b0 seg1[7]
b0 lcd_en
#136506
b1 lcd_en
#136900
b1 ps2_clk
#138500
b0 ps2_data
#138900
b0 ps2_clk
#139300
b1 ps2_clk
#139700
b0 ps2_clk
#140100
b1 ps2_clk
#140500
b0 ps2_clk
#140900
b1 ps2_clk
#141300
b0 ps2_clk
#141700
b1 ps2_clk
#142100
b0 ps2_clk
#142500
b1 ps2_clk
b1 ps2_data
#142900
b0 ps2_clk
#143300
b1 ps2_clk
#143700
b0 ps2_clk
#144100
b1 ps2_clk
#144500
b0 ps2_clk
#144900
b1 ps2_clk
#145300
b0 ps2_clk
#145700
b1 ps2_clk
#146100
b0 ps2_clk
#146500
b1 ps2_clk
#146900
b0 ps2_clk
#146905
b1 seg0[1]
b1 seg0[2]
b1 seg0[4]
b1 seg0[5]
b1 seg0[6]
b1 seg0[7]
b1 seg1[1]
b1 seg1[3]
b1 seg1[4]
b1 seg1[6]
b1 seg1[7]
#147300
b1 ps2_clk
#148900
b0 ps2_data
#149300
b0 ps2_clk
#149700
b1 ps2_clk
b1 ps2_data
#150100
b0 ps2_clk
#150500
b1 ps2_clk
b0 ps2_data
#150900
b0 ps2_clk
#151300
b1 ps2_clk
#151700
b0 ps2_clk
#152100
b1 ps2_clk
b1 ps2_data
#152500
b0 ps2_clk
#152900
b1 ps2_clk
b0 ps2_data
#153300
b0 ps2_clk
#153700
b1 ps2_clk
b1 ps2_data
#154100
b0 ps2_clk
#154500
b1 ps2_clk
b0 ps2_data
#154900
b0 ps2_clk
#155300
b1 ps2_clk
#155700
b0 ps2_clk
#156100
b1 ps2_clk
#156500
b0 ps2_clk
#156900
b1 ps2_clk
b1 ps2_data
#157300
b0 ps2_clk
#157305
b0 seg2[2]
b1 seg2[4]
b1 seg2[7]
#157700
b1 ps2_clk
#159300
b0 ps2_data
#159700
b0 ps2_clk
#160100
b1 ps2_clk
#160500
b0 ps2_clk
#160900
b1 ps2_clk
b1 ps2_data
#161300
b0 ps2_clk
#161700
b1 ps2_clk
b0 ps2_data
#162100
b0 ps2_clk
#162500
b1 ps2_clk
#162900
b0 ps2_clk
#163300
b1 ps2_clk
b1 ps2_data
#163700
b0 ps2_clk
#164100
b1 ps2_clk
b0 ps2_data
#164500
b0 ps2_clk
#164900
b1 ps2_clk
#165300
b0 ps2_clk
#165700
b1 ps2_clk
#166100
b0 ps2_clk
#166500
b1 ps2_clk
b1 ps2_data
#166900
b0 ps2_clk
#167300
b1 ps2_clk
#167700
b0 ps2_clk
#167705
b1 ledr[2]
b0 seg0[1]
b0 seg0[3]
b0 seg0[4]
b0 seg0[6]
b0 seg0[7]
b0 seg1[5]
b0 seg1[6]
#168100
b1 ps2_clk
#169700
b0 ps2_data
#170100
b0 ps2_clk
#170500
b1 ps2_clk
b1 ps2_data
#170900
b0 ps2_clk
#171300
b1 ps2_clk
#171700
b0 ps2_clk
#172100
b1 ps2_clk
b0 ps2_data
#172500
b0 ps2_clk
#172900
b1 ps2_clk
b1 ps2_data
#173300
b0 ps2_clk
#173700
b1 ps2_clk
#174100
b0 ps2_clk
#174500
b1 ps2_clk
#174900
b0 ps2_clk
#175300
b1 ps2_clk
b0 ps2_data
#175700
b0 ps2_clk
#176100
b1 ps2_clk
#176500
b0 ps2_clk
#176900
b1 ps2_clk
#177300
b0 ps2_clk
#177700
b1 ps2_clk
b1 ps2_data
#178100
b0 ps2_clk
#178105
b1 lcd_db[1]
b1 lcd_db[3]
b1 lcd_db[5]
b0 seg0[2]
b0 seg0[5]
b1 seg0[6]
b1 seg0[7]
b0 seg1[1]
b0 seg1[4]
b0 seg1[7]
b0 lcd_en
#178106
b0 lcd_db[1]
b0 lcd_db[3]
b0 lcd_db[5]
b1 lcd_en
#178500
b1 ps2_clk
#180100
b0 ps2_data
#180500
b0 ps2_clk
#180900
b1 ps2_clk
#181300
b0 ps2_clk
#181700
b1 ps2_clk
#182100
b0 ps2_clk
#182500
b1 ps2_clk
#182900
b0 ps2_clk
#183300
b1 ps2_clk
#183700
b0 ps2_clk
#184100
b1 ps2_clk
b1 ps2_data
#184500
b0 ps2_clk
#184900
b1 ps2_clk
#185300
b0 ps2_clk
#185700
b1 ps2_clk
#186100
b0 ps2_clk
#186500
b1 ps2_clk
#186900
b0 ps2_clk
#187300
b1 ps2_clk
#187700
b0 ps2_clk
#188100
b1 ps2_clk
#188500
b0 ps2_clk
#188505
b1 seg0[1]
b1 seg0[2]
b1 seg0[3]
b1 seg0[4]
b1 seg0[5]
b1 seg1[1]
b1 seg1[4]
b1 seg1[5]
b1 seg1[6]
b1 seg1[7]
#188900
b1 ps2_clk
#190500
b0 ps2_data
#190900
b0 ps2_clk
#191300
b1 ps2_clk
b1 ps2_data
#191700
b0 ps2_clk
#192100
b1 ps2_clk
#192500
b0 ps2_clk
#192900
b1 ps2_clk
b0 ps2_data
#193300
b0 ps2_clk
#193700
b1 ps2_clk
b1 ps2_data
#194100
b0 ps2_clk
#194500
b1 ps2_clk
#194900
b0 ps2_clk
#195300
b1 ps2_clk
#195700
b0 ps2_clk
#196100
b1 ps2_clk
b0 ps2_data
#196500
b0 ps2_clk
#196900
b1 ps2_clk
#197300
b0 ps2_clk
#197700
b1 ps2_clk
#198100
b0 ps2_clk
#198500
b1 ps2_clk
b1 ps2_data
#198900
b0 ps2_clk
#198905
b0 seg2[4]
b1 seg2[6]
b0 seg2[7]
#199300
b1 ps2_clk
#200900
b0 ps2_data
#201300
b0 ps2_clk
#201700
b1 ps2_clk
#202100
b0 ps2_clk
#202500
b1 ps2_clk
#202900
b0 ps2_clk
#203300
b1 ps2_clk
#203700
b0 ps2_clk
#204100
b1 ps2_clk
#204500
b0 ps2_clk
#204900
b1 ps2_clk
b1 ps2_data
#205300
b0 ps2_clk
#205700
b1 ps2_clk
#206100
b0 ps2_clk
#206500
b1 ps2_clk
#206900
b0 ps2_clk
#207300
b1 ps2_clk
#207700
b0 ps2_clk
#208100
b1 ps2_clk
#208500
b0 ps2_clk
#208900
b1 ps2_clk
#209300
b0 ps2_clk
#209700
b1 ps2_clk
#211300
b0 ps2_data
#211700
b0 ps2_clk
#212100
b1 ps2_clk
#212500
b0 ps2_clk
#212900
b1 ps2_clk
b1 ps2_data
#213300
b0 ps2_clk
#213700
b1 ps2_clk
b0 ps2_data
#214100
b0 ps2_clk
#214500
b1 ps2_clk
#214900
b0 ps2_clk
#215300
b1 ps2_clk
b1 ps2_data
#215700
b0 ps2_clk
#216100
b1 ps2_clk
b0 ps2_data
#216500
b0 ps2_clk
#216900
b1 ps2_clk
#217300
b0 ps2_clk
#217700
b1 ps2_clk
#218100
b0 ps2_clk
#218500
b1 ps2_clk
b1 ps2_data
#218900
b0 ps2_clk
#219300
b1 ps2_clk
#219700
b0 ps2_clk
#219705
b0 ledr[2]
b0 seg2[3]
#220100
b1 ps2_clk
#221700
b0 ps2_data
#222100
b0 ps2_clk
#222500
b1 ps2_clk
b1 ps2_data
#222900
b0 ps2_clk
#223300
b1 ps2_clk
#223700
b0 ps2_clk
#224100
b1 ps2_clk
b0 ps2_data
#224500
b0 ps2_clk
#224900
b1 ps2_clk
#225300
b0 ps2_clk
#225700
b1 ps2_clk
#226100
b0 ps2_clk
#226500
b1 ps2_clk
#226900
b0 ps2_clk
#227300
b1 ps2_clk
b1 ps2_data
#227700
b0 ps2_clk
#228100
b1 ps2_clk
b0 ps2_data
#228500
b0 ps2_clk
#228900
b1 ps2_clk
#229300
b0 ps2_clk
#229700
b1 ps2_clk
b1 ps2_data
#230100
b0 ps2_clk
#230105
b1 lcd_db[0]
b1 lcd_db[3]
b1 lcd_db[6]
b0 seg0[1]
b0 seg0[4]
b0 seg0[5]
b0 seg0[6]
b0 seg0[7]
b0 seg1[1]
b0 seg1[2]
b0 seg1[5]
b0 seg1[6]
b0 lcd_en
#230106
b0 lcd_db[0]
b0 lcd_db[3]
b0 lcd_db[6]
b1 lcd_en
#230500
b1 ps2_clk
#232100
b0 ps2_data
#232500
b0 ps2_clk
#232900
b1 ps2_clk
#233300
b0 ps2_clk
#233700
b1 ps2_clk
#234100
b0 ps2_clk
#234500
b1 ps2_clk
#234900
b0 ps2_clk
#235300
b1 ps2_clk
#235700
b0 ps2_clk
#236100
b1 ps2_clk
b1 ps2_data
#236500
b0 ps2_clk
#236900
b1 ps2_clk
#237300
b0 ps2_clk
#237700
b1 ps2_clk
#238100
b0 ps2_clk
#238500
b1 ps2_clk
#238900
b0 ps2_clk
#239300
b1 ps2_clk
#239700
b0 ps2_clk
#240100
b1 ps2_clk
#240500
b0 ps2_clk
#240505
b1 seg0[1]
b1 seg0[4]
b1 seg0[5]
b1 seg0[6]
b1 seg0[7]
b1 seg1[1]
b1 seg1[2]
b1 seg1[5]
b1 seg1[6]
#240900
b1 ps2_clk
#242500
b0 ps2_data
#242900
b0 ps2_clk
#243300
b1 ps2_clk
b1 ps2_data
#243700
b0 ps2_clk
#244100
b1 ps2_clk
#244500
b0 ps2_clk
#244900
b1 ps2_clk
b0 ps2_data
#245300
b0 ps2_clk
#245700
b1 ps2_clk
#246100
b0 ps2_clk
#246500
b1 ps2_clk
#246900
b0 ps2_clk
#247300
b1 ps2_clk
#247700
b0 ps2_clk
#248100
b1 ps2_clk
b1 ps2_data
#248500
b0 ps2_clk
#248900
b1 ps2_clk
b0 ps2_data
#249300
b0 ps2_clk
#249700
b1 ps2_clk
#250100
b0 ps2_clk
#250500
b1 ps2_clk
b1 ps2_data
#250900
b0 ps2_clk
#250905
b1 seg2[1]
b1 seg2[2]
b1 seg2[3]
b1 seg2[4]
b0 seg2[6]
#251300
b1 ps2_clk
#252900
b0 ps2_data
#253300
b0 ps2_clk
#253700
b1 ps2_clk
#254100
b0 ps2_clk
#254500
b1 ps2_clk
#254900
b0 ps2_clk
#255300
b1 ps2_clk
b1 ps2_data
#255700
b0 ps2_clk
#256100
b1 ps2_clk
#256500
b0 ps2_clk
#256900
b1 ps2_clk
#257300
b0 ps2_clk
#257700
b1 ps2_clk
b0 ps2_data
#258100
b0 ps2_clk
#258500
b1 ps2_clk
#258900
b0 ps2_clk
#259300
b1 ps2_clk
#259700
b0 ps2_clk
#260100
b1 ps2_clk
#260500
b0 ps2_clk
#260900
b1 ps2_clk
b1 ps2_data
#261300
b0 ps2_clk
#261305
b1 lcd_db[0]
b1 lcd_db[6]
b0 seg0[2]
b0 seg0[3]
b0 seg0[4]
b0 seg0[7]
b0 seg1[5]
b0 seg1[6]
b0 lcd_en
#261306
b0 lcd_db[0]
b0 lcd_db[6]
b1 lcd_en
#261700
b1 ps2_clk
#263300
b0 ps2_data
#263700
b0 ps2_clk
#264100
b1 ps2_clk
#264500
b0 ps2_clk
#264900
b1 ps2_clk
#265300
b0 ps2_clk
#265700
b1 ps2_clk
#266100
b0 ps2_clk
#266500
b1 ps2_clk
#266900
b0 ps2_clk
#267300
b1 ps2_clk
b1 ps2_data
#267700
b0 ps2_clk
#268100
b1 ps2_clk
#268500
b0 ps2_clk
#268900
b1 ps2_clk
#269300
b0 ps2_clk
#269700
b1 ps2_clk
#270100
b0 ps2_clk
#270500
b1 ps2_clk
#270900
b0 ps2_clk
#271300
b1 ps2_clk
#271700
b0 ps2_clk
#271705
b1 seg0[2]
b1 seg0[3]
b1 seg0[4]
b1 seg0[7]
b1 seg1[5]
b1 seg1[6]
#272100
b1 ps2_clk
#273700
b0 ps2_data
#274100
b0 ps2_clk
#274500
b1 ps2_clk
#274900
b0 ps2_clk
#275300
b1 ps2_clk
#275700
b0 ps2_clk
#276100
b1 ps2_clk
b1 ps2_data
#276500
b0 ps2_clk
#276900
b1 ps2_clk
#277300
b0 ps2_clk
#277700
b1 ps2_clk
#278100
b0 ps2_clk
#278500
b1 ps2_clk
b0 ps2_data
#278900
b0 ps2_clk
#279300
b1 ps2_clk
#279700
b0 ps2_clk
#280100
b1 ps2_clk
#280500
b0 ps2_clk
#280900
b1 ps2_clk
#281300
b0 ps2_clk
#281700
b1 ps2_clk
b1 ps2_data
#282100
b0 ps2_clk
#282105
b0 seg2[1]
b0 seg2[2]
b0 seg2[3]
b0 seg2[4]
#282500
b1 ps2_clk
#284100
b0 ps2_data
#284500
b0 ps2_clk
#284900
b1 ps2_clk
b1 ps2_data
#285300
b0 ps2_clk
#285700
b1 ps2_clk
b0 ps2_data
#286100
b0 ps2_clk
#286500
b1 ps2_clk
#286900
b0 ps2_clk
#287300
b1 ps2_clk
#287700
b0 ps2_clk
#288100
b1 ps2_clk
b1 ps2_data
#288500
b0 ps2_clk
#288900
b1 ps2_clk
#289300
b0 ps2_clk
#289700
b1 ps2_clk
b0 ps2_data
#290100
b0 ps2_clk
#290500
b1 ps2_clk
#290900
b0 ps2_clk
#291300
b1 ps2_clk
#291700
b0 ps2_clk
#292100
b1 ps2_clk
b1 ps2_data
#292500
b0 ps2_clk
#292505
b1 lcd_db[1]
b1 lcd_db[2]
b1 lcd_db[3]
b1 lcd_db[6]
b0 seg0[5]
b0 seg0[6]
b0 seg1[1]
b0 seg1[4]
b0 seg1[5]
b0 seg1[6]
b0 seg1[7]
b0 lcd_en
#292506
b0 lcd_db[1]
b0 lcd_db[2]
b0 lcd_db[3]
b0 lcd_db[6]
b1 lcd_en
#292900
b1 ps2_clk
#294500
b0 ps2_data
#294900
b0 ps2_clk
#295300
b1 ps2_clk
#295700
b0 ps2_clk
#296100
b1 ps2_clk
#296500
b0 ps2_clk
#296900
b1 ps2_clk
#297300
b0 ps2_clk
#297700
b1 ps2_clk
#298100
b0 ps2_clk
#298500
b1 ps2_clk
b1 ps2_data
#298900
b0 ps2_clk
#299300
b1 ps2_clk
#299700
b0 ps2_clk
#300100
b1 ps2_clk
#300500
b0 ps2_clk
#300900
b1 ps2_clk
#301300
b0 ps2_clk
#301700
b1 ps2_clk
#302100
b0 ps2_clk
#302500
b1 ps2_clk
#302900
b0 ps2_clk
#302905
b1 seg0[5]
b1 seg0[6]
b1 seg1[1]
b1 seg1[4]
b1 seg1[5]
b1 seg1[6]
b1 seg1[7]
#303300
b1 ps2_clk
#304900
b0 ps2_data
#305300
b0 ps2_clk
#305700
b1 ps2_clk
b1 ps2_data
#306100
b0 ps2_clk
#306500
b1 ps2_clk
b0 ps2_data
#306900
b0 ps2_clk
#307300
b1 ps2_clk
#307700
b0 ps2_clk
#308100
b1 ps2_clk
#308500
b0 ps2_clk
#308900
b1 ps2_clk
b1 ps2_data
#309300
b0 ps2_clk
#309700
b1 ps2_clk
#310100
b0 ps2_clk
#310500
b1 ps2_clk
b0 ps2_data
#310900
b0 ps2_clk
#311300
b1 ps2_clk
#311700
b0 ps2_clk
#312100
b1 ps2_clk
#312500
b0 ps2_clk
#312900
b1 ps2_clk
b1 ps2_data
#313300
b0 ps2_clk
#313305
b1 seg2[3]
#313700
b1 ps2_clk
#315300
b0 ps2_data
#315700
b0 ps2_clk
#316100
b1 ps2_clk
b1 ps2_data
#316500
b0 ps2_clk
#316900
b1 ps2_clk
b0 ps2_data
#317300
b0 ps2_clk
#317700
b1 ps2_clk
b1 ps2_data
#318100
b0 ps2_clk
#318500
b1 ps2_clk
#318900
b0 ps2_clk
#319300
b1 ps2_clk
b0 ps2_data
#319700
b0 ps2_clk
#320100
b1 ps2_clk
b1 ps2_data
#320500
b0 ps2_clk
#320900
b1 ps2_clk
b0 ps2_data
#321300
b0 ps2_clk
#321700
b1 ps2_clk
#322100
b0 ps2_clk
#322500
b1 ps2_clk
b1 ps2_data
#322900
b0 ps2_clk
#323300
b1 ps2_clk
#323700
b0 ps2_clk
#323705
b1 lcd_db[1]
b1 lcd_db[4]
b1 lcd_db[6]
b0 seg0[1]
b0 seg0[3]
b0 seg0[4]
b0 seg0[5]
b0 seg0[6]
b0 seg1[1]
b0 seg1[3]
b0 seg1[4]
b0 seg1[6]
b0 seg1[7]
b0 lcd_en
#323706
b0 lcd_db[1]
b0 lcd_db[4]
b0 lcd_db[6]
b1 lcd_en
#324100
b1 ps2_clk
#325700
b0 ps2_data
#326100
b0 ps2_clk
#326500
b1 ps2_clk
#326900
b0 ps2_clk
#327300
b1 ps2_clk
#327700
b0 ps2_clk
#328100
b1 ps2_clk
#328500
b0 ps2_clk
#328900
b1 ps2_clk
#329300
b0 ps2_clk
#329700
b1 ps2_clk
b1 ps2_data
#330100
b0 ps2_clk
#330500
b1 ps2_clk
#330900
b0 ps2_clk
#331300
b1 ps2_clk
#331700
b0 ps2_clk
#332100
b1 ps2_clk
#332500
b0 ps2_clk
#332900
b1 ps2_clk
#333300
b0 ps2_clk
#333700
b1 ps2_clk
#334100
b0 ps2_clk
#334105
b1 seg0[1]
b1 seg0[3]
b1 seg0[4]
b1 seg0[5]
b1 seg0[6]
b1 seg1[1]
b1 seg1[3]
b1 seg1[4]
b1 seg1[6]
b1 seg1[7]
#334500
b1 ps2_clk
#336100
b0 ps2_data
#336500
b0 ps2_clk
